{
	"__ver": "sys-pkg:16|addons:8",
	"_id": "uz92VzHGQBiXE2pY1ydunw",
	"css_dependencies": [
		{
			"_disp": "login.css",
			"_id": "EQnk15eDTMmHTWkoC2103A",
			"name": "login.css",
			"path": "public"
		}
	],
	"css_dependencies_fs": [
		"bower_components/bootstrap/dist/css/bootstrap.min.css",
		"bower_components/fontawesome/css/all.css"
	],
	"js_dependencies": [
	],
	"js_dependencies_fs": [
		"bower_components/angular/angular.min.js"
	],
	"module": null,
	"name": "forgot_pw.html",
	"path": "dbui2",
	"rolespec": [
	]
}