{
	"__ver": "sys-pkg:9|email:7|addons:5",
	"_id": "oJAyYGU-TmmRaVUzIq6TLg",
	"build_config": {
		"exclude": [
			"User",
			"PasswordResetRequest",
			{
				"class_name": "Config",
				"condition": {
					"key": {
						"$contains": "sys.user.preferences|sys.packageBuilding"
					}
				}
			}
		]
	},
	"changelog": [
	],
	"dependencies": {
		"npm": {
			"handlebars": "4.X",
			"nodemailer": "6.X"
		}
	},
	"description": "Objects and APIs to support sending Emails",
	"key": "addon.email",
	"manifest": {
		"AngularApp": {
			"uz92VzHGQBiXE2pY1ydunw": "sys-pkg:16|addons:8",
			"z9rdn_9zTJqRma82-AKB2g": "addons:8"
		},
		"BusinessObjectDef": {
			"ECYM18GkSPmhOJ1s-SYZ-A": "sys-pkg:3|email:1",
			"Wquqn1IhTNuZk7M4pNLveg": "sys-pkg:1|addons:3",
			"eiTZtqZIRhqggIYxoYU7hw": "email:6",
			"x8JPTt3uSKuEtu2R4qKBNQ": "sys-pkg:1",
			"xGOtowhXRQKPapjKv1Us7A": "sys-pkg:1|email:1"
		},
		"CodeModule": {
			"ZSx0FUI2S3KdenaXgISYPQ": "sys-pkg:7|email:8"
		},
		"Config": {
			"4l8p_D7ESVS41zZuAgq5jA": "sys-pkg:3|email:2|addons:6",
			"8n4AalNuR5qx6UpKRCTFOQ": "addons:3",
			"D35PIWqFRaaWn_5SyB_CEg": "sys-pkg:2|email:3",
			"O0FJXhFKR6Ou6949OTHzfA": "sys-pkg:7",
			"Q0e4YR9TTQ-qr2xC3fUwIw": "sys-pkg:1",
			"Rz-FppJ5SkuaFZYOzYqGSQ": "email:10",
			"ipxt6xkKQquPjOZLWRz4uw": "sys-pkg:1|email:1"
		},
		"DataTrigger": {
			"CXX81RnNQ4Cl1m_uzcLhsg": "sys-pkg:13|email:1|addon:1|addons:3"
		},
		"EmailMessage": {
			"4z1LSTfLQpecUzE9AdkrEw": "sys-pkg:2|email:1"
		},
		"EmailTransport": {
			"px8kYWB5SPC72t3Oqvbf7w": "sys-pkg:1"
		},
		"LabelGroup": {
			"8t6faAADT-iEuMoeFQqB8Q": "sys-pkg:4|addons:1",
			"Ge2VBpNXSwqKIeFRgV5McA": "sys-pkg:1",
			"R7jWkaX2QDSq8EE2gGoLXw": "addons:3",
			"hP2fT989T4C5X8I5iFt11A": "sys-pkg:1|addons:1",
			"zA3zh4FBQ4-rRvp0ziTWBw": "email:4"
		},
		"MemberFunction": {
			"37IKxboJS0epzOQazLvK-Q": "addons:2"
		},
		"WebService": {
			"VVA5VVZ9RQ-5idW42T07ow": "sys-pkg:2",
			"tGlPRXCUTDOeD2C5gMB1hw": "sys-pkg:13|email:1|addons:3"
		},
		"_deleted": {
			"PasswordResetRequest": [
				"9SaQMafpS9CN96Rmd85yNA"
			]
		}
	},
	"name": "Email",
	"package_file": {
		"attachment_id": "bhgColi-ROCBi_Lqubzp4w",
		"filename": "addon.email.0.18.2.json",
		"type": "application/json"
	},
	"version": "0.18.2"
}