{
	"__ver": "sys-pkg:1|email:1",
	"_id": "xGOtowhXRQKPapjKv1Us7A",
	"abstract": false,
	"class_name": "EmailTransport",
	"definition": {
		"config": {
			"type": "object"
		},
		"key": {
			"type": "path"
		},
		"name": {
			"type": "string"
		},
		"options": {
			"type": "object"
		}
	},
	"doc": "\n @property {object} config \n @property {path} key \n @property {string} name \n @property {object} options \n",
	"system": true
}